PS270 Final Project
…
library(tidyverse)
library(infer)
library(dplyr)

trustwmedia <- read_csv("index_files/data-P8Evn (1).csv")

colnames(trustwmedia) <- trustwmedia[1, ]

trustwmedia <- trustwmedia[-c(1:3), ]

colnames(trustwmedia) <- c("Year", "Great Deal %", "Not Very Much %", "None At All %")

trustwmedia

# A tibble: 25 × 4
    Year `Great Deal %` `Not Very Much %` `None At All %`
   <dbl>          <dbl>             <dbl>           <dbl>
 1  1997             58                31              10
 2  1998             55                35               9
 3  1999             55                34              11
 4  2000             51                37              12
 5  2001             53                33              14
 6  2002             54                35              11
 7  2003             54                35              11
 8  2004             44                39              16
 9  2005             50                37              12
10  2007             47                35              17
# ℹ 15 more rows

Now, I’ve loaded and modified my data as needed, it’s time to create some graphs.

trustmedialong <- trustwmedia |>
  pivot_longer(cols = c("Great Deal %", "Not Very Much %", "None At All %"),
               names_to = "Trust_Level",
               values_to = "Percentage")

trustmedialong

# A tibble: 75 × 3
    Year Trust_Level     Percentage
   <dbl> <chr>                <dbl>
 1  1997 Great Deal %            58
 2  1997 Not Very Much %         31
 3  1997 None At All %           10
 4  1998 Great Deal %            55
 5  1998 Not Very Much %         35
 6  1998 None At All %            9
 7  1999 Great Deal %            55
 8  1999 Not Very Much %         34
 9  1999 None At All %           11
10  2000 Great Deal %            51
# ℹ 65 more rows
…
trust_data_interpolated

# A tibble: 78 × 3
    Year Trust_Level  Percentage
   <dbl> <chr>             <dbl>
 1  1997 Great Deal %         58
 2  1998 Great Deal %         55
 3  1999 Great Deal %         55
 4  2000 Great Deal %         51
 5  2001 Great Deal %         53
 6  2002 Great Deal %         54
 7  2003 Great Deal %         54
 8  2004 Great Deal %         44
 9  2005 Great Deal %         50
10  2007 Great Deal %         47
# ℹ 68 more rows
…
However, in the interest of answering our research question, we need to take a look at how people affiliated with certain political parties trust the media, and how people trust one another.

Let’s look at a change over this timeframe with trust of certain political parties in the mainstream media (and is there a pattern?)

partytrust_m <- read_csv("index_files/data-Sc9Xf.csv")

colnames(partytrust_m) <- partytrust_m[1, ]

partytrust_m <- partytrust_m[-c(1:3), ]

colnames(partytrust_m) <- c("Year", "Republican %", "Independent %", "Democrat %")

partytrust_m

# A tibble: 26 × 4
    Year `Republican %` `Independent %` `Democrat %`
   <dbl> <chr>          <chr>           <chr>       
 1  1997 41%            53%             64%         
 2  1998 52%            53%             59%         
 3  1999 46%            55%             61%         
 4  2000 47%            53%             53%         
 5  2001 39%            52%             65%         
 6  2002 49%            52%             59%         
 7  2003 44%            53%             66%         
 8  2004 31%            44%             59%         
 9  2005 31%            49%             70%         
10  2007 33%            41%             66%         
# ℹ 16 more rows

party_tm_long <- partytrust_m |>
  pivot_longer(cols = c("Republican %", "Independent %", "Democrat %"),
               names_to = "Party_perc",
               values_to = "Percentage")

party_tm_long <- party_tm_long |>
  mutate(Percentage = as.numeric(gsub("%", "", Percentage))) |>
  group_by(Year)

party_tm_long

# A tibble: 78 × 3
# Groups:   Year [26]
    Year Party_perc    Percentage
   <dbl> <chr>              <dbl>
 1  1997 Republican %          41
 2  1997 Independent %         53
 3  1997 Democrat %            64
 4  1998 Republican %          52
 5  1998 Independent %         53
 6  1998 Democrat %            59
 7  1999 Republican %          46
 8  1999 Independent %         55
 9  1999 Democrat %            61
10  2000 Republican %          47
# ℹ 68 more rows
…
